<svg width="28" height="28" viewBox="0 0 28 28" fill="none" xmlns="http://www.w3.org/2000/svg">
<path d="M2.33334 8.16665C2.33334 7.54781 2.57917 6.95432 3.01675 6.51673C3.45434 6.07915 4.04783 5.83331 4.66667 5.83331H23.3333C23.9522 5.83331 24.5457 6.07915 24.9833 6.51673C25.4208 6.95432 25.6667 7.54781 25.6667 8.16665V19.8333C25.6667 20.4522 25.4208 21.0456 24.9833 21.4832C24.5457 21.9208 23.9522 22.1666 23.3333 22.1666H4.66667C4.04783 22.1666 3.45434 21.9208 3.01675 21.4832C2.57917 21.0456 2.33334 20.4522 2.33334 19.8333V8.16665Z" stroke="black" stroke-width="2" stroke-linecap="round" stroke-linejoin="round"/>
<path d="M14 17.5C15.933 17.5 17.5 15.933 17.5 14C17.5 12.067 15.933 10.5 14 10.5C12.067 10.5 10.5 12.067 10.5 14C10.5 15.933 12.067 17.5 14 17.5Z" stroke="black" stroke-width="2" stroke-linecap="round" stroke-linejoin="round"/>
<path d="M2.33334 10.5C3.57101 10.5 4.758 10.0083 5.63317 9.13315C6.50834 8.25798 7 7.07099 7 5.83331M21 22.1666C21 20.929 21.4917 19.742 22.3668 18.8668C23.242 17.9916 24.429 17.5 25.6667 17.5" stroke="black" stroke-width="2" stroke-linecap="round" stroke-linejoin="round"/>
</svg>
